L4/tb_alu1ss.vcd
$date
  Thu Nov  5 15:33:36 2015
$end
$version
  GHDL v0
$end
$timescale
  1 fs
$end
$var reg 1 ! mya $end
$var reg 1 " myb $end
$var reg 1 # myc $end
$var reg 1 $ mybinv $end
$var reg 1 % myres $end
$var reg 1 & myc_out $end
$var reg 2 ' myop[1:0] $end
$scope module tb $end
$var reg 1 ( a $end
$var reg 1 ) b $end
$var reg 1 * carryin $end
$var reg 1 + binvert $end
$var reg 2 , operation[1:0] $end
$var reg 1 - result $end
$var reg 1 . carryout $end
$var reg 1 / s1 $end
$var reg 1 0 s2 $end
$var reg 1 1 s3 $end
$var reg 1 2 b1 $end
$var reg 1 3 s4 $end
$scope module bxor $end
$var reg 1 4 a $end
$var reg 1 5 b $end
$var reg 1 6 c $end
$upscope $end
$scope module ag $end
$var reg 1 7 a $end
$var reg 1 8 b $end
$var reg 1 9 c $end
$upscope $end
$scope module og $end
$var reg 1 : a $end
$var reg 1 ; b $end
$var reg 1 < c $end
$upscope $end
$scope module fa $end
$var reg 1 = a $end
$var reg 1 > b $end
$var reg 1 ? c_in $end
$var reg 1 @ sum $end
$var reg 1 A c_out $end
$var reg 1 B s1 $end
$var reg 1 C s2 $end
$var reg 1 D s3 $end
$upscope $end
$scope module mux $end
$var reg 1 E i0 $end
$var reg 1 F i1 $end
$var reg 1 G i2 $end
$var reg 1 H i3 $end
$var reg 2 I sel[1:0] $end
$var reg 1 J z $end
$upscope $end
$upscope $end
$enddefinitions $end
#0
0!
0"
0#
0$
U%
U&
b10 '
0(
0)
0*
0+
b10 ,
U-
U.
U/
U0
U1
U2
X3
04
05
U6
07
U8
U9
0:
U;
U<
0=
U>
0?
U@
UA
UB
UC
UD
UE
UF
UG
XH
b10 I
UJ
#1000000
U-
0/
02
06
08
09
0;
U<
0>
0E
UJ
#2000000
U-
00
09
0<
0F
UJ
#3000000
U-
UJ
#5000000
U.
U@
UA
0C
0D
#6000000
0B
#10000000
1!
0&
1(
0.
17
1:
1=
0A
#11000000
10
01
09
1<
0@
1F
0G
#12000000
0%
0-
0J
#15000000
1B
#20000000
0!
1"
0(
1)
11
14
07
0:
0=
1@
1G
#21000000
1%
1-
00
12
16
18
09
1;
0<
1>
0F
1J
#22000000
1-
10
09
1<
1F
1J
#23000000
1-
1J
#25000000
#26000000
#30000000
1!
1(
17
1:
1=
#31000000
1/
19
1<
1E
#32000000
1-
1J
#35000000
0B
1D
#40000000
0!
0"
1#
1&
0(
0)
1*
1.
01
04
07
0:
0=
1?
0@
1A
0G
#41000000
0%
0-
0/
02
06
08
09
0;
1<
0>
0E
0J
#42000000
0-
00
09
0<
0F
0J
#43000000
0-
0J
#45000000
11
1@
0D
1G
#46000000
1%
1-
1J
#50000000
1!
0&
1(
0.
17
1:
1=
0A
#51000000
10
09
1<
1F
#52000000
1-
1J
#55000000
1B
#60000000
0!
1"
0(
1)
01
14
07
0:
0=
0@
1C
0G
#61000000
0%
0-
00
12
16
18
09
1;
0<
1>
0F
0J
#62000000
0-
10
09
1<
1F
0J
#63000000
0-
0J
#65000000
1&
1.
1A
#66000000
#70000000
1!
1(
17
1:
1=
#71000000
1/
19
1<
1E
#72000000
0-
0J
#75000000
0B
1D
#80000000
0!
0"
0#
1$
0(
0)
0*
1+
1.
11
04
15
07
0:
0=
0?
1@
1A
0C
1G
#81000000
1%
1-
0/
16
09
1<
0E
1J
#82000000
1-
1J
#85000000
1.
01
0@
1A
1B
0D
0G
#86000000
0%
0-
0J
#90000000
1!
0&
1(
0.
11
17
1:
1=
1@
0A
1G
#91000000
1%
1-
1/
19
1<
1E
1J
#92000000
1-
1J
#95000000
0B
1D
#100000000
0!
1"
1&
0(
1)
1.
01
14
07
0:
0=
0@
1A
0G
#101000000
0%
0-
0/
02
06
08
09
0;
1<
0>
0E
0J
#102000000
0-
00
09
0<
0F
0J
#103000000
0-
0J
#105000000
0D
#106000000
#110000000
1!
0&
1(
0.
17
1:
1=
0A
#111000000
10
09
1<
1F
#112000000
0-
0J
#115000000
1B
#120000000
0!
0"
1#
0(
0)
1*
11
04
07
0:
0=
1?
1@
1G
#121000000
1%
1-
00
12
16
18
09
1;
0<
1>
0F
1J
#122000000
1-
10
09
1<
1F
1J
#123000000
1-
1J
#125000000
01
0@
1C
0G
#126000000
0%
0-
0J
#130000000
1!
1&
1(
1.
17
1:
1=
1A
#131000000
1/
19
1<
1E
#132000000
0-
0J
#135000000
0B
1D
#140000000
0!
1"
0(
1)
1.
11
14
07
0:
0=
1@
1A
0C
1G
#141000000
1%
1-
0/
02
06
08
09
0;
1<
0>
0E
1J
#142000000
1-
00
09
0<
0F
1J
#143000000
1-
1J
#145000000
1.
1A
0D
#146000000
#150000000
1!
0&
1(
0.
17
1:
1=
0A
#151000000
10
09
1<
1F
#152000000
1-
1J
#155000000
1B
#160000000
0!
0"
0#
0$
0(
0)
0*
0+
01
04
05
07
0:
0=
0?
0@
1C
0G
#161000000
0%
0-
00
06
09
0<
0F
0J
#162000000
0-
0J
#165000000
1&
1.
11
1@
1A
0B
0C
1G
#166000000
1%
1-
1J
#170000000
1!
0&
1(
0.
01
17
1:
1=
0@
0A
0G
#171000000
0%
0-
10
09
1<
1F
0J
#172000000
0-
0J
#175000000
1B
#180000000
0!
1"
0(
1)
11
14
07
0:
0=
1@
1G
#181000000
1%
1-
00
12
16
18
09
1;
0<
1>
0F
1J
#182000000
1-
10
09
1<
1F
1J
#183000000
1-
1J
#185000000
#186000000
#190000000
1!
1(
17
1:
1=
#191000000
1/
19
1<
1E
#192000000
1-
1J
#195000000
0B
1D
#200000000
0!
0"
1#
1&
b00 '
0(
0)
1*
b00 ,
1.
01
04
07
0:
0=
1?
0@
1A
0G
b00 I
