L4/tb_alu1sob.vcd
$date
  Thu Nov  5 15:45:06 2015
$end
$version
  GHDL v0
$end
$timescale
  1 fs
$end
$var reg 1 ! mya $end
$var reg 1 " myb $end
$var reg 1 # myc $end
$var reg 1 $ mybinv $end
$var reg 1 % myres $end
$var reg 1 & myc_out $end
$var reg 1 ' myovf $end
$var reg 2 ( myop[1:0] $end
$scope module tb $end
$var reg 1 ) a $end
$var reg 1 * b $end
$var reg 1 + carryin $end
$var reg 1 , binvert $end
$var reg 2 - operation[1:0] $end
$var reg 1 . result $end
$var reg 1 / carryout $end
$var reg 1 0 overflow $end
$var reg 1 1 br $end
$var reg 1 2 carryoutt $end
$upscope $end
$enddefinitions $end
#0
0!
0"
0#
0$
U%
U&
U'
b10 (
0)
0*
0+
0,
b10 -
U.
U/
U0
01
U2
#1000000
0%
0&
0'
0.
0/
00
02
#10000000
1!
1)
#11000000
1%
1.
#20000000
0!
1"
0)
1*
11
#21000000
1.
#30000000
1!
1)
#31000000
0%
1&
1'
0.
1/
10
12
#40000000
0!
0"
1#
0'
0)
0*
1+
00
01
#41000000
1%
0&
1'
1.
0/
10
02
#50000000
1!
1)
#51000000
0%
1&
0'
0.
1/
00
12
#60000000
0!
1"
0)
1*
11
#61000000
0.
#70000000
1!
1)
#71000000
1%
1.
#80000000
0!
0"
0#
1$
1'
0)
0*
0+
1,
10
#81000000
0&
0'
1.
0/
00
02
#90000000
1!
1)
#91000000
0%
1&
1'
0.
1/
10
12
#100000000
0!
1"
0)
1*
01
#101000000
0&
0'
0.
0/
00
02
#110000000
1!
1)
#111000000
1%
1.
#120000000
0!
0"
1#
1'
0)
0*
1+
10
11
#121000000
0%
1&
0'
0.
1/
00
12
#130000000
1!
1)
#131000000
1%
1.
#140000000
0!
1"
0)
1*
01
#141000000
0&
1'
1.
0/
10
02
#150000000
1!
1)
#151000000
0%
1&
0'
0.
1/
00
12
#160000000
0!
0"
0#
0$
1'
0)
0*
0+
0,
10
#161000000
0&
0'
0.
0/
00
02
#170000000
1!
1)
#171000000
1%
1.
#180000000
0!
1"
0)
1*
11
#181000000
1.
#190000000
1!
1)
#191000000
0%
1&
1'
0.
1/
10
12
#200000000
0!
0"
1#
0'
b00 (
0)
0*
1+
b00 -
00
01
