L4/tb_alu1sos.vcd
$date
  Thu Nov  5 15:31:01 2015
$end
$version
  GHDL v0
$end
$timescale
  1 fs
$end
$var reg 1 ! mya $end
$var reg 1 " myb $end
$var reg 1 # myc $end
$var reg 1 $ mybinv $end
$var reg 1 % myres $end
$var reg 1 & myc_out $end
$var reg 1 ' myovf $end
$var reg 2 ( myop[1:0] $end
$scope module tb $end
$var reg 1 ) a $end
$var reg 1 * b $end
$var reg 1 + carryin $end
$var reg 1 , binvert $end
$var reg 2 - operation[1:0] $end
$var reg 1 . result $end
$var reg 1 / carryout $end
$var reg 1 0 overflow $end
$var reg 1 1 s1 $end
$var reg 1 2 s2 $end
$var reg 1 3 s3 $end
$var reg 1 4 b1 $end
$var reg 1 5 carryoutt $end
$var reg 1 6 s4 $end
$scope module bxor $end
$var reg 1 7 a $end
$var reg 1 8 b $end
$var reg 1 9 c $end
$upscope $end
$scope module ag $end
$var reg 1 : a $end
$var reg 1 ; b $end
$var reg 1 < c $end
$upscope $end
$scope module og $end
$var reg 1 = a $end
$var reg 1 > b $end
$var reg 1 ? c $end
$upscope $end
$scope module fa $end
$var reg 1 @ a $end
$var reg 1 A b $end
$var reg 1 B c_in $end
$var reg 1 C sum $end
$var reg 1 D c_out $end
$var reg 1 E s1 $end
$var reg 1 F s2 $end
$var reg 1 G s3 $end
$upscope $end
$scope module ag2 $end
$var reg 1 H a $end
$var reg 1 I b $end
$var reg 1 J c $end
$upscope $end
$scope module mux $end
$var reg 1 K i0 $end
$var reg 1 L i1 $end
$var reg 1 M i2 $end
$var reg 1 N i3 $end
$var reg 2 O sel[1:0] $end
$var reg 1 P z $end
$upscope $end
$scope module over $end
$var reg 1 Q a $end
$var reg 1 R b $end
$var reg 1 S c $end
$upscope $end
$upscope $end
$enddefinitions $end
#0
0!
0"
0#
0$
U%
U&
U'
b10 (
0)
0*
0+
0,
b10 -
U.
U/
U0
U1
U2
U3
U4
U5
X6
07
08
U9
0:
U;
U<
0=
U>
U?
0@
UA
0B
UC
UD
UE
UF
UG
UH
UI
UJ
UK
UL
UM
XN
b10 O
UP
0Q
UR
US
#1000000
U.
U/
U0
01
04
09
0;
0<
0>
U?
0A
UJ
0K
UP
US
#2000000
U.
02
0<
0?
0L
UP
#3000000
U.
UP
#5000000
UC
UD
0F
0G
#6000000
0E
#10000000
1!
1)
05
1:
1=
1@
0D
0H
0I
0R
#11000000
0&
0'
0/
00
12
03
0<
1?
0C
0J
1L
0M
0S
#12000000
0%
0.
0P
#15000000
1E
#20000000
0!
1"
0)
1*
13
17
0:
0=
0@
1C
1M
#21000000
1%
1.
02
14
19
1;
0<
1>
0?
1A
0L
1P
#22000000
1.
12
0<
1?
1L
1P
#23000000
1.
1P
#25000000
#26000000
#30000000
1!
1)
1:
1=
1@
#31000000
11
1<
1?
1K
#32000000
1.
1P
#35000000
0E
1G
#40000000
0!
0"
1#
0)
0*
1+
03
15
07
0:
0=
0@
1B
0C
1D
1H
1I
0M
1Q
1R
#41000000
0%
1&
0.
1/
00
01
04
09
0;
0<
0>
1?
0A
1J
0K
0P
0S
#42000000
0.
02
0<
0?
0L
0P
#43000000
0.
0P
#45000000
13
1C
0G
1M
#46000000
1%
1.
1P
#50000000
1!
1)
05
1:
1=
1@
0D
0H
0I
0R
#51000000
0&
1'
0/
10
12
0<
1?
0J
1L
1S
#52000000
1.
1P
#55000000
1E
#60000000
0!
1"
0)
1*
03
17
0:
0=
0@
0C
1F
0M
#61000000
0%
0.
02
14
19
1;
0<
1>
0?
1A
0L
0P
#62000000
0.
12
0<
1?
1L
0P
#63000000
0.
0P
#65000000
15
1D
1H
1I
1R
#66000000
1&
0'
1/
00
1J
0S
#70000000
1!
1)
1:
1=
1@
#71000000
11
1<
1?
1K
#72000000
0.
0P
#75000000
0E
1G
#80000000
0!
0"
0#
1$
0)
0*
0+
1,
13
07
18
0:
0=
0@
0B
1C
1D
0F
1M
0Q
#81000000
1%
1'
1.
10
01
19
0<
1?
0K
1P
1S
#82000000
1.
1P
#85000000
03
0C
1D
1E
0G
0M
#86000000
0%
0.
0P
#90000000
1!
1)
13
05
1:
1=
1@
1C
0D
0H
0I
1M
0R
#91000000
1%
0&
0'
1.
0/
00
11
1<
1?
0J
1K
1P
0S
#92000000
1.
1P
#95000000
0E
1G
#100000000
0!
1"
0)
1*
03
15
17
0:
0=
0@
0C
1D
1H
1I
0M
1R
#101000000
0%
1&
1'
0.
1/
10
01
04
09
0;
0<
0>
1?
0A
1J
0K
0P
1S
#102000000
0.
02
0<
0?
0L
0P
#103000000
0.
0P
#105000000
0G
#106000000
#110000000
1!
1)
05
1:
1=
1@
0D
0H
0I
0R
#111000000
0&
0'
0/
00
12
0<
1?
0J
1L
0S
#112000000
0.
0P
#115000000
1E
#120000000
0!
0"
1#
0)
0*
1+
13
07
0:
0=
0@
1B
1C
1M
1Q
#121000000
1%
1'
1.
10
02
14
19
1;
0<
1>
0?
1A
0L
1P
1S
#122000000
1.
12
0<
1?
1L
1P
#123000000
1.
1P
#125000000
03
0C
1F
0M
#126000000
0%
0.
0P
#130000000
1!
1)
15
1:
1=
1@
1D
1H
1I
1R
#131000000
1&
0'
1/
00
11
1<
1?
1J
1K
0S
#132000000
0.
0P
#135000000
0E
1G
#140000000
0!
1"
0)
1*
13
17
0:
0=
0@
1C
1D
0F
1M
#141000000
1%
1.
01
04
09
0;
0<
0>
1?
0A
0K
1P
#142000000
1.
02
0<
0?
0L
1P
#143000000
1.
1P
#145000000
1D
0G
#146000000
#150000000
1!
1)
05
1:
1=
1@
0D
0H
0I
0R
#151000000
0&
1'
0/
10
12
0<
1?
0J
1L
1S
#152000000
1.
1P
#155000000
1E
#160000000
0!
0"
0#
0$
0)
0*
0+
0,
03
07
08
0:
0=
0@
0B
0C
1F
0M
0Q
#161000000
0%
0'
0.
00
02
09
0<
0?
0L
0P
0S
#162000000
0.
0P
#165000000
13
15
1C
1D
0E
0F
1H
1I
1M
1R
#166000000
1%
1&
1'
1.
1/
10
1J
1P
1S
#170000000
1!
1)
03
05
1:
1=
1@
0C
0D
0H
0I
0M
0R
#171000000
0%
0&
0'
0.
0/
00
12
0<
1?
0J
1L
0P
0S
#172000000
0.
0P
#175000000
1E
#180000000
0!
1"
0)
1*
13
17
0:
0=
0@
1C
1M
#181000000
1%
1.
02
14
19
1;
0<
1>
0?
1A
0L
1P
#182000000
1.
12
0<
1?
1L
1P
#183000000
1.
1P
#185000000
#186000000
#190000000
1!
1)
1:
1=
1@
#191000000
11
1<
1?
1K
#192000000
1.
1P
#195000000
0E
1G
#200000000
0!
0"
1#
b00 (
0)
0*
1+
b00 -
03
15
07
0:
0=
0@
1B
0C
1D
1H
1I
0M
b00 O
1Q
1R
