L4/tb_alu1sb.vcd
$date
  Thu Nov  5 15:42:21 2015
$end
$version
  GHDL v0
$end
$timescale
  1 fs
$end
$var reg 1 ! mya $end
$var reg 1 " myb $end
$var reg 1 # myc $end
$var reg 1 $ mybinv $end
$var reg 1 % myres $end
$var reg 1 & myc_out $end
$var reg 2 ' myop[1:0] $end
$scope module tb $end
$var reg 1 ( a $end
$var reg 1 ) b $end
$var reg 1 * carryin $end
$var reg 1 + binvert $end
$var reg 2 , operation[1:0] $end
$var reg 1 - result $end
$var reg 1 . carryout $end
$var reg 1 / br $end
$upscope $end
$enddefinitions $end
#0
0!
0"
0#
0$
U%
U&
b10 '
0(
0)
0*
0+
b10 ,
U-
U.
0/
#1000000
0%
0&
0-
0.
#10000000
1!
1(
#11000000
1%
1-
0.
#20000000
0!
1"
0(
1)
1/
#21000000
1-
0.
#30000000
1!
1(
#31000000
0%
1&
0-
1.
#40000000
0!
0"
1#
0(
0)
1*
0/
#41000000
1%
0&
1-
0.
#50000000
1!
1(
#51000000
0%
1&
0-
1.
#60000000
0!
1"
0(
1)
1/
#61000000
0-
1.
#70000000
1!
1(
#71000000
1%
1-
1.
#80000000
0!
0"
0#
1$
0(
0)
0*
1+
#81000000
0&
1-
0.
#90000000
1!
1(
#91000000
0%
1&
0-
1.
#100000000
0!
1"
0(
1)
0/
#101000000
0&
0-
0.
#110000000
1!
1(
#111000000
1%
1-
0.
#120000000
0!
0"
1#
0(
0)
1*
1/
#121000000
0%
1&
0-
1.
#130000000
1!
1(
#131000000
1%
1-
1.
#140000000
0!
1"
0(
1)
0/
#141000000
0&
1-
0.
#150000000
1!
1(
#151000000
0%
1&
0-
1.
#160000000
0!
0"
0#
0$
0(
0)
0*
0+
#161000000
0&
0-
0.
#170000000
1!
1(
#171000000
1%
1-
0.
#180000000
0!
1"
0(
1)
1/
#181000000
1-
0.
#190000000
1!
1(
#191000000
0%
1&
0-
1.
#200000000
0!
0"
1#
b00 '
0(
0)
1*
b00 ,
0/
