L3/output.3.vcd
$date
  Thu Oct 22 15:58:33 2015
$end
$version
  GHDL v0
$end
$timescale
  1 fs
$end
$var reg 1 ! x0_in $end
$var reg 1 " x1_in $end
$var reg 1 # x2_in $end
$var reg 1 $ x3_in $end
$var reg 1 % s0_in $end
$var reg 1 & s1_in $end
$var reg 1 ' z_out $end
$scope module tb $end
$var reg 1 ( x0 $end
$var reg 1 ) x1 $end
$var reg 1 * x2 $end
$var reg 1 + x3 $end
$var reg 1 , s0 $end
$var reg 1 - s1 $end
$var reg 1 . z $end
$var reg 1 / s_n0 $end
$var reg 1 0 s_n1 $end
$var reg 1 1 s_a0 $end
$var reg 1 2 s_a1 $end
$var reg 1 3 s_a2 $end
$var reg 1 4 s_a3 $end
$scope module a0 $end
$var reg 1 5 a $end
$var reg 1 6 b $end
$var reg 1 7 c $end
$var reg 1 8 z $end
$upscope $end
$scope module a1 $end
$var reg 1 9 a $end
$var reg 1 : b $end
$var reg 1 ; c $end
$var reg 1 < z $end
$upscope $end
$scope module a2 $end
$var reg 1 = a $end
$var reg 1 > b $end
$var reg 1 ? c $end
$var reg 1 @ z $end
$upscope $end
$scope module a3 $end
$var reg 1 A a $end
$var reg 1 B b $end
$var reg 1 C c $end
$var reg 1 D z $end
$upscope $end
$scope module n0 $end
$var reg 1 E x $end
$var reg 1 F z $end
$upscope $end
$scope module n1 $end
$var reg 1 G x $end
$var reg 1 H z $end
$upscope $end
$scope module o0 $end
$var reg 1 I a $end
$var reg 1 J b $end
$var reg 1 K c $end
$var reg 1 L d $end
$var reg 1 M z $end
$upscope $end
$upscope $end
$enddefinitions $end
#0
0!
0"
0#
0$
0%
1&
U'
0(
0)
0*
0+
0,
1-
U.
U/
U0
U1
U2
U3
U4
05
U6
U7
U8
09
0:
U;
U<
0=
U>
1?
U@
0A
0B
1C
UD
0E
UF
1G
UH
UI
UJ
UK
UL
UM
#2000000
U.
1/
00
01
02
03
04
16
07
08
0;
0<
1>
0@
0D
1F
0H
0I
0J
0K
0L
UM
#4000000
0'
0.
08
0<
0@
0M
#15000000
1!
1"
1(
1)
15
19
#17000000
08
0<
#30000000
0!
1%
0(
1,
05
1:
1B
1E
#32000000
0/
06
08
0<
0>
0D
0F
#34000000
08
0@
#45000000
1!
1#
1$
1(
1*
1+
15
1=
1A
#47000000
14
08
0@
1D
1L
#49000000
1'
1.
1M
#60000000
0!
0"
0$
0%
0&
0(
0)
0+
0,
0-
05
09
0:
0?
0A
0B
0C
0E
0G
#62000000
1/
10
04
16
17
08
1;
0<
1>
0@
0D
1F
1H
0L
#64000000
0'
0.
08
0<
0@
0M
