L3/tb_full_adder_s.vcd
$date
  Thu Oct 22 12:31:44 2015
$end
$version
  GHDL v0
$end
$timescale
  1 fs
$end
$var reg 1 ! sum $end
$var reg 1 " carry $end
$var reg 1 # mya $end
$var reg 1 $ myb $end
$var reg 1 % myc $end
$var reg 1 & mysum $end
$var reg 1 ' myc_out $end
$scope module tb $end
$var reg 1 ( a $end
$var reg 1 ) b $end
$var reg 1 * c_in $end
$var reg 1 + sum $end
$var reg 1 , c_out $end
$var reg 1 - s1 $end
$var reg 1 . s2 $end
$var reg 1 / s3 $end
$scope module ha1 $end
$var reg 1 0 a $end
$var reg 1 1 b $end
$var reg 1 2 sum $end
$var reg 1 3 carry $end
$scope module x1 $end
$var reg 1 4 a $end
$var reg 1 5 b $end
$var reg 1 6 c $end
$upscope $end
$scope module a1 $end
$var reg 1 7 a $end
$var reg 1 8 b $end
$var reg 1 9 c $end
$upscope $end
$upscope $end
$scope module ha2 $end
$var reg 1 : a $end
$var reg 1 ; b $end
$var reg 1 < sum $end
$var reg 1 = carry $end
$scope module x1 $end
$var reg 1 > a $end
$var reg 1 ? b $end
$var reg 1 @ c $end
$upscope $end
$scope module a1 $end
$var reg 1 A a $end
$var reg 1 B b $end
$var reg 1 C c $end
$upscope $end
$upscope $end
$scope module o1 $end
$var reg 1 D a $end
$var reg 1 E b $end
$var reg 1 F c $end
$upscope $end
$upscope $end
$enddefinitions $end
#0
U!
U"
0#
0$
0%
U&
U'
0(
0)
0*
U+
U,
U-
U.
U/
00
01
U2
U3
04
05
U6
07
08
U9
U:
0;
U<
U=
U>
0?
U@
UA
0B
UC
UD
UE
UF
#2000000
U+
U,
0-
0.
0/
02
03
06
09
0:
U<
0=
0>
U@
0A
0C
0D
0E
UF
#4000000
0!
0"
0&
0'
0+
0,
0<
0=
0@
0C
0F
#20000000
1#
1(
10
14
17
#22000000
1-
12
03
16
09
1:
1>
1A
#24000000
1!
1&
1+
1<
0=
1@
0C
#40000000
0#
1$
0(
1)
00
11
04
15
07
18
#42000000
12
03
16
09
#60000000
1#
1(
10
14
17
#62000000
0-
1/
02
13
06
19
0:
0>
0A
1E
#64000000
0!
1"
0&
1'
0+
1,
0<
0=
0@
0C
1F
#80000000
0#
0$
1%
0(
0)
1*
00
01
04
05
07
08
1;
1?
1B
#82000000
1!
1&
1+
0/
02
03
06
09
1<
0=
1@
0C
0E
#84000000
0"
0'
0,
0F
#100000000
1#
1(
10
14
17
#102000000
1-
12
03
16
09
1:
1>
1A
#104000000
0!
0&
0+
1.
0<
1=
0@
1C
1D
#106000000
1"
1'
1,
1F
#120000000
0#
1$
0(
1)
00
11
04
15
07
18
#122000000
12
03
16
09
#140000000
1#
1(
10
14
17
#142000000
0-
1/
02
13
06
19
0:
0>
0A
1E
#144000000
1!
1&
1+
1,
0.
1<
0=
1@
0C
0D
1F
#146000000
1,
1F
#160000000
0#
0$
0%
0(
0)
0*
00
01
04
05
07
08
0;
0?
0B
#162000000
0!
0&
0+
0/
02
03
06
09
0<
0=
0@
0C
0E
#164000000
0"
0'
0,
0F
#200000000
1#
1(
10
14
17
